…
``` r
global_shapefile %>%
  distinct(country)
```

    ## # A tibble: 258 × 1
    ##    country            
    ##    <chr>              
    ##  1 Afghanistan        
    ##  2 Albania            
    ##  3 Algeria            
    ##  4 American Samoa     
    ##  5 Andorra            
    ##  6 Angola             
    ##  7 Anguilla           
    ##  8 Antarctica         
    ##  9 Antigua            
    ## 10 Antigua and Barbuda
    ## # ℹ 248 more rows
…
``` r
usa_data %>%
  mutate(region=as.list(region)) %>%
  mutate(across(region,str_replace_all,";",",")) %>%
  unnest(region,.sep=",") %>%
  count(region, name="count") #still need to remove grouped rows
```

    ## Warning: The `.sep` argument of `unnest()` is deprecated as of tidyr 1.0.0.
    ## ℹ Use `names_sep = ','` instead.
    ## This warning is displayed once every 8 hours.
    ## Call `lifecycle::last_lifecycle_warnings()` to see where this warning was
    ## generated.

    ## # A tibble: 31 × 2
    ##    region                                                     count
    ##    <chr>                                                      <int>
    ##  1 ""                                                           883
    ##  2 "Arizona"                                                      1
    ##  3 "Arkansas"                                                     1
    ##  4 "California"                                                  12
    ##  5 "California, California, California"                           1
    ##  6 "California, California, Massachusetts"                        1
    ##  7 "California, New Jersey, California, Texas, Massachusetts"     1
    ##  8 "Colorado"                                                     1
    ##  9 "Florida"                                                      2
    ## 10 "Georgia"                                                      1
    ## # ℹ 21 more rows
…
    ## Warning in stri_count_regex(string, pattern, opts_regex = opts(pattern)):
    ## argument is not an atomic vector; coercing

    ## [1] 2

``` r
state_frequencies <- state_frequencies %>%
  add_row(state="wisconsin",frequency=2)
```

``` r
state_frequencies
```

    ## # A tibble: 28 × 2
    ##    state      frequency
    ##    <chr>          <dbl>
    ##  1 alabama            1
    ##  2 arizona            1
    ##  3 arkansas           2
    ##  4 california        19
    ##  5 colorado           1
    ##  6 florida            2
    ##  7 georgia            1
    ##  8 illinois           5
    ##  9 indiana            2
    ## 10 kentucky           1
    ## # ℹ 18 more rows
…
